%YAML 1.1
%TAG !u! tag:unity3d.com,2011:
--- !u!114 &11400000
MonoBehaviour:
  m_ObjectHideFlags: 0
  m_CorrespondingSourceObject: {fileID: 0}
  m_PrefabInstance: {fileID: 0}
  m_PrefabAsset: {fileID: 0}
  m_GameObject: {fileID: 0}
  m_Enabled: 1
  m_EditorHideFlags: 0
  m_Script: {fileID: 11500000, guid: d76d4d5230fe95e4bb4e4f9ac1480985, type: 3}
  m_Name: LevelData
  m_EditorClassIdentifier: 
  LEVELS:
  - START_HOUR: 6
    START_MINUTES: 45
    DURATION: 300
    BACKGROUND: {fileID: 21300000, guid: d02d7a2dfac976f4f9fb2302c04bee11, type: 3}
    BGM: {fileID: 8300000, guid: ac23f275e059d95478bb709fe820d41f, type: 3}
    NUMBER_OF_ARTICLES: 15
    REWARD_PER_REVIEW: 5
  - START_HOUR: 12
    START_MINUTES: 10
    DURATION: 240
    BACKGROUND: {fileID: 21300000, guid: 3bb482eeba6ada949bd8c10caea81d46, type: 3}
    BGM: {fileID: 8300000, guid: feb1c9e61565cce40bd2aba1ec54cd51, type: 3}
    NUMBER_OF_ARTICLES: 15
    REWARD_PER_REVIEW: 7
  - START_HOUR: 8
    START_MINUTES: 20
    DURATION: 180
    BACKGROUND: {fileID: 21300000, guid: c0b19374bd2363249b2e69017d143dd2, type: 3}
    BGM: {fileID: 8300000, guid: 943c6a8ce6deaf34d8998157c07966ff, type: 3}
    NUMBER_OF_ARTICLES: 15
    REWARD_PER_REVIEW: 10
